[gd_resource type="Environment" load_steps=3 format=2]

[ext_resource path="res://textures/hdri/spruit_sunrise_2k.hdr" type="Texture" id=1]

[sub_resource type="PanoramaSky" id=1]
radiance_size = 4
panorama = ExtResource( 1 )

[resource]
background_mode = 3
background_sky = SubResource( 1 )
